{
  "project_info": {
    "project_number": "541127596041",
    "firebase_url": "https://easy-credit-4aec4.firebaseio.com",
    "project_id": "easy-credit-4aec4",
    "storage_bucket": "easy-credit-4aec4.appspot.com"
  },
  "client": [
    {
      "client_info": {
        "mobilesdk_app_id": "1:541127596041:android:fa5d333dae7c04d7",
        "android_client_info": {
          "package_name": "com.glopez.easycredit"
        }
      },
      "oauth_client": [
        {
          "client_id": "541127596041-78j17mh7j7ccq3mjtpdg8f6b6sgnokhj.apps.googleusercontent.com",
          "client_type": 3
        }
      ],
      "api_key": [
        {
          "current_key": "AIzaSyA7vvCn6hfDph6X_PUw0va7YIM_73H5vu0"
        }
      ],
      "services": {
        "analytics_service": {
          "status": 1
        },
        "appinvite_service": {
          "status": 1,
          "other_platform_oauth_client": []
        },
        "ads_service": {
          "status": 2
        }
      }
    }
  ],
  "configuration_version": "1"
}